{
    "_id": "jcIabnkJgjwzK6Og",
    "data": {
        "MAP": {
            "value": ""
        },
        "baseItem": "dwarven-scattergun",
        "bonus": {
            "value": 0
        },
        "bonusDamage": {
            "value": 0
        },
        "brokenThreshold": {
            "value": 0
        },
        "bulkCapacity": {
            "value": ""
        },
        "category": "advanced",
        "collapsed": {
            "value": false
        },
        "containerId": {
            "value": null
        },
        "damage": {
            "damageType": "piercing",
            "dice": 1,
            "die": "d8",
            "value": ""
        },
        "description": {
            "value": "<p>A favored weapon of dwarf scouts from Dongun Hold, the dwarven scattergun is a powerful weapon designed to take advantage of a dwarf's sturdy frame. A dwarven scattergun fires a large paper cartridge stuffed with black powder and knuckle-sized lumps of metal, creating a devastating burst so destructive that a foolish dwarf might find themself catching painful ricochets when firing at a too-close target. Some scatterguns are crafted with a clockwork firing tray that can quickly sort and load black powder and shot without needing a prepackaged cartridge, though this is largely an aesthetic feature with no real mechanical benefit.</p>"
        },
        "equipped": {
            "value": false
        },
        "equippedBulk": {
            "value": ""
        },
        "group": "firearm",
        "hands": {
            "value": false
        },
        "hardness": {
            "value": 0
        },
        "hp": {
            "value": 0
        },
        "identification": {
            "misidentified": {},
            "status": "identified",
            "unidentified": {
                "data": {
                    "description": {
                        "value": ""
                    }
                },
                "img": "",
                "name": ""
            }
        },
        "invested": {
            "value": null
        },
        "level": {
            "value": 1
        },
        "maxHp": {
            "value": 0
        },
        "negateBulk": {
            "value": "0"
        },
        "potencyRune": {
            "value": null
        },
        "preciousMaterial": {
            "value": null
        },
        "preciousMaterialGrade": {
            "value": null
        },
        "price": {
            "value": "10 gp"
        },
        "property1": {
            "critDamage": "",
            "critDamageType": "",
            "critDice": 0,
            "critDie": "",
            "criticalConditionType": "",
            "criticalConditionValue": null,
            "damageType": "",
            "dice": 0,
            "die": "",
            "strikeConditionType": "",
            "strikeConditionValue": null,
            "value": ""
        },
        "propertyRune1": {
            "value": null
        },
        "propertyRune2": {
            "value": null
        },
        "propertyRune3": {
            "value": null
        },
        "propertyRune4": {
            "value": null
        },
        "quantity": {
            "value": 1
        },
        "range": 50,
        "reload": {
            "value": "1"
        },
        "rules": [],
        "size": {
            "value": "med"
        },
        "source": {
            "value": "Pathfinder Guns & Gears"
        },
        "specific": {
            "value": false
        },
        "splashDamage": {
            "value": 0
        },
        "stackGroup": {
            "value": ""
        },
        "strikingRune": {
            "value": ""
        },
        "traits": {
            "custom": "",
            "rarity": {
                "value": "uncommon"
            },
            "value": [
                "concussive",
                "dwarf",
                "kickback",
                "scatter-10"
            ]
        },
        "usage": {
            "value": "held-in-two-hands"
        },
        "weight": {
            "value": "2"
        }
    },
    "effects": [],
    "flags": {},
    "img": "systems/pf2e/icons/equipment/weapons/dwarven-scattergun.webp",
    "name": "Dwarven Scattergun",
    "type": "weapon"
}
