{
    "_id": "Blp9Ha1YeIJOeFls",
    "data": {
        "armor": {
            "value": 2
        },
        "armorType": {
            "value": "light"
        },
        "baseItem": "studded-leather-armor",
        "brokenThreshold": {
            "value": null
        },
        "bulkCapacity": {
            "value": ""
        },
        "check": {
            "value": -1
        },
        "collapsed": {
            "value": false
        },
        "containerId": {
            "value": ""
        },
        "description": {
            "value": "<p>This <em>+1 resilient </em>studded leather is adorned with colorful sequins that sparkle in even the faintest light.</p>\n<p>While wearing the spangled rider's suit, you gain a +2 item bonus to Command an Animal you are riding.</p>\n<p>Any animal you ride automatically knows the Drop Prone and Step basic actions, in addition to any other basic actions it knows (normally only Leap, Seek, Stand, Stride, and Strike).</p>\n<p><strong>Activate</strong> <span class=\"pf2-icon\">R</span> (move)</p>\n<p><strong>Trigger</strong> You take damage while mounted or your mount Drops Prone</p>\n<p><strong>Effect</strong> You dismount, moving off your mount into a space adjacent to it.</p>\n<hr />\n<p>Automatically applied effects:</p>\n<ul>\n<li>+2 item bonus to Command an Animal you are riding</li>\n</ul>"
        },
        "dex": {
            "value": 3
        },
        "equipped": {
            "value": false
        },
        "equippedBulk": {
            "value": "1"
        },
        "group": {
            "value": "leather"
        },
        "hardness": {
            "value": null
        },
        "hp": {
            "value": null
        },
        "identification": {
            "misidentified": {},
            "status": "identified",
            "unidentified": {
                "data": {
                    "description": {
                        "value": ""
                    }
                },
                "img": "",
                "name": ""
            }
        },
        "invested": {
            "value": false
        },
        "level": {
            "value": 9
        },
        "maxHp": {
            "value": null
        },
        "negateBulk": {
            "value": "0"
        },
        "potency": {},
        "potencyRune": {
            "value": 1
        },
        "preciousMaterial": {
            "value": ""
        },
        "preciousMaterialGrade": {
            "value": ""
        },
        "price": {
            "value": "700 gp"
        },
        "propertyRune1": {
            "value": ""
        },
        "propertyRune2": {
            "value": ""
        },
        "propertyRune3": {
            "value": ""
        },
        "propertyRune4": {
            "value": ""
        },
        "quantity": {
            "value": 1
        },
        "resiliencyRune": {
            "value": "resilient"
        },
        "rules": [
            {
                "key": "FlatModifier",
                "label": "Spangled Rider's Suit (command your mount)",
                "predicate": {
                    "all": [
                        "action:command-an-animal",
                        "target:mount"
                    ]
                },
                "selector": "nature",
                "type": "item",
                "value": 2
            }
        ],
        "size": {
            "value": "med"
        },
        "source": {
            "value": "Pathfinder #152: Legacy of the Lost God"
        },
        "speed": {
            "value": 0
        },
        "stackGroup": {
            "value": ""
        },
        "strength": {
            "value": 12
        },
        "traits": {
            "custom": "",
            "rarity": {
                "value": "uncommon"
            },
            "value": [
                "divination",
                "invested",
                "magical"
            ]
        },
        "usage": {
            "value": "held-in-one-hand"
        },
        "weight": {
            "value": "2"
        }
    },
    "effects": [],
    "flags": {},
    "img": "systems/pf2e/icons/equipment/armor/specific-magic-armor/spangled-riders-suit.webp",
    "name": "Spangled Rider's Suit",
    "type": "armor"
}
