{
    "_id": "hnYckrT72oIKAuHJ",
    "data": {
        "attributes": {
            "ac": {
                "value": 21
            },
            "hardness": 13,
            "hasHealth": true,
            "hp": {
                "details": "",
                "max": 60,
                "temp": 0,
                "tempmax": 0,
                "value": 60
            },
            "stealth": {
                "details": "<p>(expert)</p>",
                "value": 15
            }
        },
        "creatureType": "",
        "details": {
            "description": "<p>The hatch atop the haunted furnace flips open and disgorges a pair of shrieking, burning ghosts.</p>",
            "disable": "<p><span data-pf2-check=\"intimidation\" data-pf2-dc=\"22\" data-pf2-label=\"Cow a Spirit DC\" data-pf2-show-dc=\"gm\">Intimidation</span> (trained) to cow one of the vengeful spirits or <span data-pf2-check=\"religion\" data-pf2-dc=\"25\" data-pf2-label=\"Exorcise the Spirit DC\" data-pf2-show-dc=\"gm\">Religion</span> (trained) to exorcise the spirit. The haunt remains active until both spirits are cowed or exorcised, or until the furnace is destroyed.</p>",
            "isComplex": true,
            "level": {
                "value": 4
            },
            "reset": "<p>The haunt resets 1 hour after there are no creatures in the room.</p>",
            "routine": "<p>(3 actions) The burning ghosts lash at a random @Compendium[pf2e.conditionitems.Stupefied]{Stupefied} creature in the room (or any random creature, if no creatures in the room are stupefied).</p>"
        },
        "saves": {
            "fortitude": {
                "saveDetail": "",
                "value": 15
            },
            "reflex": {
                "saveDetail": "",
                "value": 8
            },
            "will": {
                "saveDetail": "",
                "value": 0
            }
        },
        "source": {
            "value": "Pathfinder #163: Ruins of Gauntlight"
        },
        "statusEffects": [],
        "traits": {
            "ci": [],
            "di": {
                "custom": "",
                "selected": {},
                "value": [
                    "critical-hits",
                    "object-immunities",
                    "precision"
                ]
            },
            "dr": [],
            "dv": [
                {
                    "exceptions": "",
                    "label": "Cold",
                    "type": "cold",
                    "value": "8"
                },
                {
                    "exceptions": "",
                    "label": "Positive",
                    "type": "positive",
                    "value": "5"
                }
            ],
            "rarity": {
                "value": "common"
            },
            "size": {
                "value": "med"
            },
            "traits": {
                "custom": "",
                "value": [
                    "haunt"
                ]
            }
        }
    },
    "effects": [],
    "flags": {},
    "img": "systems/pf2e/icons/default-icons/hazard.svg",
    "items": [
        {
            "_id": "pozH1aOlixvNcvU6",
            "data": {
                "actionCategory": {
                    "value": "offensive"
                },
                "actionType": {
                    "value": "passive"
                },
                "actions": {
                    "value": null
                },
                "description": {
                    "value": "<p data-visibility=\"gm\">The target of the haunt's initial Ghostly Assault, as well as any creature later hit by a burning lash Strike, loses random memories, as if these thoughts were incinerated like pages in a burning book.</p>\n<p>The creature must attempt a <span data-pf2-check=\"will\" data-pf2-dc=\"23\" data-pf2-traits=\"divine,enchantment,fire,mental\" data-pf2-label=\"Burn Knowledge DC\" data-pf2-show-dc=\"gm\">Will</span> save.</p>\n<div data-visibility=\"gm\"><hr />\n<p><strong>Critical Success</strong> The creature is unaffected.</p>\n<p><strong>Success</strong> The creature becomes @Compendium[pf2e.conditionitems.Stupefied]{Stupefied 1} for 1 minute while they forget random memories, as if these thoughts were incinerated like pages in a burning book.</p>\n<p><strong>Failure</strong> As success, but the stupefied 1 condition persists for 24 hours.</p>\n<p><strong>Critical Failure</strong> As failure, but @Compendium[pf2e.conditionitems.Stupefied]{Stupefied 2}.</p>\n</div>"
                },
                "requirements": {
                    "value": ""
                },
                "rules": [],
                "slug": null,
                "source": {
                    "value": ""
                },
                "traits": {
                    "custom": "",
                    "rarity": {
                        "value": "common"
                    },
                    "value": [
                        "divine",
                        "enchantment",
                        "fire",
                        "mental"
                    ]
                },
                "trigger": {
                    "value": ""
                },
                "weapon": {
                    "value": ""
                }
            },
            "effects": [],
            "flags": {},
            "img": "systems/pf2e/icons/actions/Passive.webp",
            "name": "Burn Knowledge",
            "sort": 100000,
            "type": "action"
        },
        {
            "_id": "9i3UjVYq4lp3MqZJ",
            "data": {
                "attack": {
                    "value": ""
                },
                "attackEffects": {
                    "custom": "",
                    "value": [
                        "burn-knowledge"
                    ]
                },
                "bonus": {
                    "value": 14
                },
                "damageRolls": {
                    "s2blktozj5cqsr98af68bc": {
                        "damage": "2d6",
                        "damageType": "fire"
                    },
                    "661efb7d51dmoi17le0e8": {
                        "damage": "2d6",
                        "damageType": "mental"
                    }
                },
                "description": {
                    "value": ""
                },
                "rules": [],
                "slug": null,
                "source": {
                    "value": ""
                },
                "traits": {
                    "custom": "",
                    "rarity": {
                        "value": "common"
                    },
                    "value": [
                        "fire",
                        "mental",
                        "range-increment-10"
                    ]
                },
                "weaponType": {
                    "value": "ranged"
                }
            },
            "effects": [],
            "flags": {},
            "img": "systems/pf2e/icons/default-icons/melee.svg",
            "name": "Burning Lash",
            "sort": 200000,
            "type": "melee"
        },
        {
            "_id": "zzmMQYbPGJRgOH7E",
            "data": {
                "actionCategory": {
                    "value": "offensive"
                },
                "actionType": {
                    "value": "reaction"
                },
                "actions": {
                    "value": null
                },
                "description": {
                    "value": "<p data-visibility=\"gm\"><strong>Trigger</strong> A living creature with an Intelligence score of 15 or higher enters the room, or any creature touches the furnace;</p>\n<p><strong>Effect</strong> Burning ghosts burst from the furnace<span data-visibility=\"gm\">, exposing the triggering creature to the haunt's burn knowledge effect</span>. The haunt rolls initiative.</p>"
                },
                "requirements": {
                    "value": ""
                },
                "rules": [],
                "slug": null,
                "source": {
                    "value": ""
                },
                "traits": {
                    "custom": "",
                    "rarity": {
                        "value": "common"
                    },
                    "value": [
                        "divine",
                        "enchantment",
                        "fire",
                        "mental"
                    ]
                },
                "trigger": {
                    "value": ""
                },
                "weapon": {
                    "value": ""
                }
            },
            "effects": [],
            "flags": {},
            "img": "systems/pf2e/icons/actions/Reaction.webp",
            "name": "Ghostly Assault",
            "sort": 300000,
            "type": "action"
        }
    ],
    "name": "Vengeful Furnace",
    "token": {
        "disposition": 0,
        "height": 1,
        "img": "systems/pf2e/icons/default-icons/hazard.svg",
        "name": "Vengeful Furnace",
        "width": 1
    },
    "type": "hazard"
}
