{
    "_id": "6X9N5ieXqWitEVKw",
    "content": "<table class=\"pf2-table\">\n<thead>\n<tr>\n<th>\n<h3><strong>Name</strong></h3>\n</th>\n<th>\n<h3><strong>Crit Effect</strong></h3>\n</th>\n<th>\n<h3><strong>Type</strong></h3>\n</th>\n</tr>\n</thead>\n<tbody>\n<tr>\n<td>Punt</td>\n<td>Your weapon files 1d4x5 feet in a random direction (determined bty the GM).</td>\n<td>\n<h3>Melee</h3>\n</td>\n</tr>\n<tr>\n<td>So much Blood</td>\n<td>You are sickened 3.</td>\n<td>\n<h3>Ranged</h3>\n</td>\n</tr>\n<tr>\n<td>Unintentional Move</td>\n<td>You are moved 10 feet in a random direction (determined by the GM). This movement triggers reactions.</td>\n<td>\n<h3>Unarmed</h3>\n</td>\n</tr>\n<tr>\n<td>It's so Sparkly!</td>\n<td>You are blinded until the end of your next turn.</td>\n<td>\n<h3>Spell</h3>\n</td>\n</tr>\n</tbody>\n</table>\n<h3 style=\"text-align: left;\"> </h3>",
    "flags": {},
    "name": "Critical Fumble Deck #53",
    "permission": {
        "default": 0
    }
}
