{
    "_id": "qOmgdhhShYp4vlfi",
    "content": "<table class=\"pf2-table\">\n<thead>\n<tr>\n<th>\n<h3><strong>Name</strong></h3>\n</th>\n<th>\n<h3><strong>Crit Effect</strong></h3>\n</th>\n<th>\n<h3><strong>Type</strong></h3>\n</th>\n</tr>\n</thead>\n<tbody>\n<tr>\n<td>\n<h3 style=\"box-sizing: border-box; user-select: text; color: #191813;\">Surprise Opening</h3>\n</td>\n<td>\n<h3>You gain 1 action that you can use before the end of your turn to use an attack action against the target.</h3>\n</td>\n<td>\n<h3>Bludgeoning</h3>\n</td>\n</tr>\n<tr>\n<td>\n<h3>Tongue Piercing</h3>\n</td>\n<td>\n<h3>The target must succeed at a DC 5 flat check to cast spells with the verbal component until healed.</h3>\n</td>\n<td>\n<h3>Piercing</h3>\n</td>\n</tr>\n<tr>\n<td>\n<h3>Brow to Chin</h3>\n</td>\n<td>\n<h3>The target takes a -2 status penalty to Perception and ranged attack rolls until healer.</h3>\n</td>\n<td>\n<h3>Slashing</h3>\n</td>\n</tr>\n<tr>\n<td>\n<h3>Olfactory Overload</h3>\n</td>\n<td>\n<h3>The target loses its sense of smell and any scent ability or other olfactory sense until healed.</h3>\n</td>\n<td>\n<h3>Bomb or Spell</h3>\n</td>\n</tr>\n</tbody>\n</table>\n<h3 style=\"text-align: left;\"> </h3>",
    "flags": {},
    "name": "Critical Hit Deck #3",
    "permission": {
        "default": 0
    }
}
