{
    "_id": "txOOwTfhpIJj4LU1",
    "content": "<table class=\"pf2-table\" style=\"width:93.1133%\">\n<thead>\n<tr>\n<th style=\"width:16.3328%\">\n<h3><strong>Name</strong></h3>\n</th>\n<th style=\"width:65.003%\">\n<h3><strong>Crit Effect</strong></h3>\n</th>\n<th style=\"width:18.5101%\">\n<h3><strong>Type</strong></h3>\n</th>\n</tr>\n</thead>\n<tbody>\n<tr>\n<td style=\"width:16.3328%\">Second Thoughts</td>\n<td style=\"width:65.003%;text-align:justify\">You are sickened 3.</td>\n<td style=\"width:18.5101%\">\n<h3>Melee</h3>\n</td>\n</tr>\n<tr>\n<td style=\"width:16.3328%\">Mix it Up</td>\n<td style=\"width:65.003%;text-align:justify\">You can't make ranged attacks until the end of your next turn.</td>\n<td style=\"width:18.5101%\">\n<h3>Ranged</h3>\n</td>\n</tr>\n<tr>\n<td style=\"width:16.3328%\">Hangnail</td>\n<td style=\"width:65.003%;text-align:justify\">If you attacked with a claw or fist, you can't use that attack until the end of your next turn.</td>\n<td style=\"width:18.5101%\">\n<h3>Unarmed</h3>\n</td>\n</tr>\n<tr>\n<td style=\"width:16.3328%\">Magic Vacuum</td>\n<td style=\"width:65.003%;text-align:justify\">The effects of all beneficial spells affecting you end immediately.</td>\n<td style=\"width:18.5101%\">\n<h3>Spell</h3>\n</td>\n</tr>\n</tbody>\n</table>",
    "flags": {},
    "name": "Critical Fumble Deck #12",
    "permission": {
        "default": 0
    }
}
