{
    "_id": "vdnuczo4ktS7ow7N",
    "data": {
        "actionCategory": {
            "value": "interaction"
        },
        "actionType": {
            "value": "free"
        },
        "actions": {
            "value": null
        },
        "description": {
            "value": "<p><strong>Trigger</strong> You fail a saving throw, attack roll, or skill check;</p>\n<p><strong>Effect</strong> You twist the prophecy in your favor, which will have consequences later. Reroll the failed check. You must use the result of the second roll.</p>\n<p>For 24 hours afterward, the GM can force you to reroll a successful saving throw, attack roll, or skill check as fate balances the scale. This is a misfortune effect. You can't use prophecy's pawn again until the GM uses this option or 24 hours pass, whichever comes first.</p>"
        },
        "requirements": {
            "value": ""
        },
        "rules": [],
        "source": {
            "value": ""
        },
        "traits": {
            "custom": "",
            "rarity": {
                "value": "common"
            },
            "value": [
                "abjuration",
                "divine",
                "fortune"
            ]
        },
        "trigger": {
            "value": ""
        },
        "weapon": {
            "value": ""
        }
    },
    "effects": [],
    "flags": {},
    "img": "systems/pf2e/icons/actions/FreeAction.webp",
    "name": "Prophecy's Pawn",
    "type": "action"
}
