{
    "_id": "OQaFzDtVEOMWizJJ",
    "data": {
        "actionCategory": {
            "value": ""
        },
        "actionType": {
            "value": "passive"
        },
        "actions": {
            "value": null
        },
        "description": {
            "value": "<p>You repeatedly cast the same spell while moving at half speed. Typically, this spell is a cantrip that you want to have in effect in the event a combat breaks out, and it must be one you can cast in 2 actions or fewer. In order to prevent fatigue due to repeated casting, you'll likely use this activity only when something out of the ordinary occurs.</p>\n<p>You can instead use this activity to continue @Compendium[pf2e.actionspf2e.Sustain a Spell]{Sustain a Spell} or @Compendium[pf2e.actionspf2e.Sustain an Activation]{Sustain an Activation} with a sustained duration. Most such spells or item effects can be sustained for 10 minutes, though some specify they can be sustained for a different duration.</p>"
        },
        "requirements": {
            "value": ""
        },
        "rules": [],
        "source": {
            "value": "Pathfinder Core Rulebook"
        },
        "traits": {
            "custom": "",
            "rarity": {
                "value": "common"
            },
            "value": [
                "concentrate",
                "exploration"
            ]
        },
        "trigger": {
            "value": ""
        },
        "weapon": {
            "value": ""
        }
    },
    "effects": [],
    "flags": {},
    "img": "systems/pf2e/icons/default-icons/mystery-man.svg",
    "name": "Repeat a Spell",
    "type": "action"
}
