{
    "_id": "5ZIvg8CkqRMepVcX",
    "content": "<h1>Korada (The Open Hand of Harmony) [NG]</h1><p>Korada, the Open Hand of Harmony, is concerned with foresight, forgiveness, and peace. In particular, he believes that although the tireless fight against wickedness is admirable, the ultimate triumph over evil will come in the form of redemption rather than destruction. Korada's dedication to peace is such that he and his followers refuse to cause harm to their attackers, instead using their martial skills only to defend themselves. Many Koradans seek greater wisdom through study or meditation in hopes of better understanding their foes so as to guide them toward redemption. This dedication to self-awareness, philosophy, and introspection is said to have allowed Korada greater insight into the workings of the universe, granting him the great gift of foresight. Korada rarely acts on his visions, however, believing the struggle that comes with true change is always worthwhile, whether or not such a change is successful.</p><p>The Open Hand of Harmony takes the form of a lithe, athletic man donning simple robes. He is covered in sparse, light-brown fur and has three monkey tails that constantly writhe behind him, much like the dancing flames of a powerful fire. Most of Korada's followers are those who have lived imbalanced lives or faced persistent violence as they seek to find peace in their life and within themselves. Many of the evil individuals redeemed by Koradans soon become followers themselves.</p><p><strong>Edicts</strong> Forgive those who have wronged you, embrace a peaceful mindset, seek and allow redemption</p><p><strong>Anathema</strong> Cause lethal harm to a creature, deny a repentant creature an opportunity for redemption, ask a retired warrior to fight</p><p><strong>Areas of Concern</strong> foresight, forgiveness, and peace</p><p><strong>Follower Alignments</strong> NG, N</span></p><p></span></p><h2>Devotee Benefits</h2><div><div><strong>Divine Ability</strong> Wisdom or Charisma</div><div><strong>Divine Font</strong> heal</div><div><strong>Divine Skill</strong> Diplomacy</div><div><strong>Favored Weapon</strong> fist</div><div><strong>Domains</strong> change, healing, magic, protection</div><div><strong>Cleric Spells</strong> 1st: soothe, 3rd: slow, 4th: resilient sphere</div></div>",
    "flags": {},
    "name": "Korada",
    "permission": {
        "default": 0
    }
}
