{
    "_id": "N8a76dkGfUvxvSW0",
    "content": "<h1>Trudd (The Mighty) [NG]</h1><p>Trudd is a deity almost entirely worshiped by dwarves. He is the youngest son of the primary dwarven deity, Torag. Despite his relatively young age, Trudd is the strongest deity in the dwarven pantheon, and as a result is often left to guard his father's halls while Torag is absent. For a dwarf, Trudd sports a remarkably short beard, spawning many tales, including one that he sold it for some unknown boon.</p><p></span><strong>Edicts</strong> Offer your strength to aid others, protect those weaker than you</p><p><strong>Anathema</strong> Engage in petty showcases of strength, use your strength to take advantage of others</p><p><strong>Follower Alignments</strong> LG, NG</span></p><p></span></p><h2>Devotee Benefits</h2><div><div><strong>Divine Ability</strong> Strength or Constitution</div><div><strong>Divine Font</strong> heal</div><div><strong>Divine Skill</strong> Athletics</div><div><strong>Favored Weapon</strong> warhammer</div><div><strong>Domains</strong> confidence, duty, might, protection</div><div><strong>Cleric Spells</strong> 1st: endure, 3rd: haste, 4th: stoneskin</div></div>",
    "flags": {},
    "name": "Trudd",
    "permission": {
        "default": 0
    }
}
