{
    "_id": "SUaGdvQXxSAQAw03",
    "content": "<h1>Yog-Sothoth (Lurker at the Threshold) [CN]</h1><p>Yog-Sothoth is, along with Azathoth, one of the greatest of the Outer Gods. In appearance, he is said to be a congeries of iridescent spheres-brilliant, foaming bubbles that constantly expand and collapse in upon themselves. He has other manifestations, however, including the Lurker on the Threshold, a mass of black tentacles that endlessly writhe, reach, and grow, and a mysterious humanoid figure hidden behind a shimmering veil.</p><p>Yog-Sothoth embodies all of space and time; he exists in all places and in all moments simultaneously. Paradoxically, however, he is unable to manifest in the mortal universe unless summoned, a magical act that almost always results in untold destruction. He is known as the Key and the Gate, and magicians and cults research him in an effort to master time and space. Fortunately, his worship is not widespread, but some of those who have delved deep into his secrets describe him as an ambivalent figure, rather than a malevolent one, who guards cosmic secrets and makes them accessible to those who dare to ask for them. Yog-Sothoth reveals the true nature of the universe, but this is a thing that once seen cannot be unseen, and wise mortals turn aside from Yog-Sothoth's offer of cosmic knowledge in favor of a more mundane existence.</p><p><strong>Edicts</strong> Gather knowledge of gates through space and time, curse or mutate unborn children</p><p><strong>Anathema</strong> None</p><p><strong>Follower Alignments</strong> CN, CE</span></p><h2>Devotee Benefits</h2><div><div><div><strong>Divine Ability</strong> Intelligence or Charisma</div><div><strong>Divine Font</strong> harm</div><div><strong>Divine Skill</strong> Occultism</div><div><strong>Favored Weapon</strong> dagger</div><div><strong>Domains</strong> knowledge, time, travel, void</div><div><strong>Cleric Spells</strong> 1st: fleet step, 5th: black tentacles, 7th: time beacon</div></div></div>",
    "flags": {},
    "name": "Yog-Sothoth",
    "permission": {
        "default": 0
    }
}
