{
    "_id": "tMsAj0H0B9XZQjtH",
    "data": {
        "actionCategory": {
            "value": ""
        },
        "actionType": {
            "value": "passive"
        },
        "actions": {
            "value": null
        },
        "description": {
            "value": "<p>You have replaced one of your forearms with one made of clay and infused with cursed arcane magic. When you make an unarmed Strike with your clay fist and hit, your target takes a -2 status penalty to saving throws against curse effects for 1 hour.</p>\n<hr />\n<p><strong>Special</strong> The damage die for your clay fist is 1d8, and it loses the agile and finesse traits of a typical fist.</p>\n<p>@Compendium[pf2e.feat-effects.Effect: Accursed Clay Fist]{Effect: Accursed Clay Fist}</p>"
        },
        "featType": {
            "value": "archetype"
        },
        "level": {
            "value": 10
        },
        "location": "",
        "prerequisites": {
            "value": [
                {
                    "value": "Golem Grafter Dedication"
                },
                {
                    "value": "expert in unarmed attacks"
                }
            ]
        },
        "rules": [
            {
                "category": "unarmed",
                "damage": {
                    "base": {
                        "damageType": "bludgeoning",
                        "dice": 1,
                        "die": "d8"
                    }
                },
                "group": "brawling",
                "key": "Strike",
                "label": "Stone Fist",
                "range": null,
                "traits": [
                    "unarmed",
                    "nonlethal"
                ]
            }
        ],
        "source": {
            "value": "Pathfinder #153: Life's Long Shadow"
        },
        "traits": {
            "custom": "",
            "rarity": {
                "value": "common"
            },
            "value": [
                "archetype",
                "curse"
            ]
        }
    },
    "effects": [],
    "flags": {},
    "img": "systems/pf2e/icons/features/feats/feats.webp",
    "name": "Accursed Clay Fist",
    "type": "feat"
}
