{
    "_id": "Z15QFC45psi0txWg",
    "data": {
        "actionCategory": {
            "value": ""
        },
        "actionType": {
            "value": "reaction"
        },
        "actions": {
            "value": null
        },
        "description": {
            "value": "<p><strong>Frequency</strong> once per hour</p>\n<p><strong>Trigger</strong> You take acid, electricity, or sonic damage.</p>\n<hr />\n<p>You focus on your protean forebears to change your energy resistance. The energy resistance you gain from your ganzi heritage changes to match the triggering damage. This change occurs after the damage is dealt.</p>"
        },
        "featType": {
            "value": "ancestry"
        },
        "level": {
            "value": 13
        },
        "location": "",
        "prerequisites": {
            "value": []
        },
        "rules": [],
        "source": {
            "value": "Pathfinder Lost Omens: Ancestry Guide"
        },
        "traits": {
            "custom": "",
            "rarity": {
                "value": "common"
            },
            "value": [
                "ganzi"
            ]
        }
    },
    "effects": [],
    "flags": {},
    "img": "systems/pf2e/icons/features/feats/feats.webp",
    "name": "Alter Resistance",
    "type": "feat"
}
