{
    "_id": "3fLfHrJbMy2ayLMQ",
    "data": {
        "actionCategory": {
            "value": ""
        },
        "actionType": {
            "value": "passive"
        },
        "actions": {
            "value": null
        },
        "description": {
            "value": "<p><strong>Access</strong> You are from Dongun Hold or Alkenstar.</p>\n<hr />\n<p>You're used to the clamor of steel, the crack of a firearm, and the thunderous blast of explosions. You gain resistance 3 to sonic. If you roll a success on a saving throw against an auditory effect that causes the @Compendium[pf2e.conditionitems.Deafened]{Deafened} condition, you get a critical success instead.</p>"
        },
        "featType": {
            "value": "ancestry"
        },
        "level": {
            "value": 5
        },
        "location": "",
        "prerequisites": {
            "value": []
        },
        "rules": [
            {
                "key": "Note",
                "predicate": {
                    "all": [
                        "auditory",
                        "condition:deafened"
                    ]
                },
                "selector": "saving-throw",
                "text": "<p class='compact-text'><strong>{item|name}</strong> When you roll a success on a save against a cold or water effect, you get a critical success instead.</p>"
            },
            {
                "key": "Resistance",
                "type": "sonic",
                "value": 3
            }
        ],
        "source": {
            "value": ""
        },
        "traits": {
            "custom": "",
            "rarity": {
                "value": "uncommon"
            },
            "value": [
                "dwarf"
            ]
        }
    },
    "effects": [],
    "flags": {},
    "img": "systems/pf2e/icons/default-icons/feats.webp",
    "name": "Blast Resistance",
    "type": "feat"
}
