{
    "_id": "QicYF43HqgpOBLzo",
    "data": {
        "actionCategory": {
            "value": ""
        },
        "actionType": {
            "value": "passive"
        },
        "actions": {
            "value": null
        },
        "description": {
            "value": "<p>Your attacks slice arteries and veins. Add the following debilitation to the list you can choose from when you use @Compendium[pf2e.actionspf2e.Debilitating Strike]{Debilitating Strike}.</p>\n<ul>\n<li><strong>Debilitation</strong> The target takes [[/r 3d6 #persistent bleed]] @Compendium[pf2e.conditionitems.Persistent Damage]{Persistent Bleed Damage}.</li>\n</ul>"
        },
        "featType": {
            "value": "class"
        },
        "level": {
            "value": 12
        },
        "location": "",
        "prerequisites": {
            "value": [
                {
                    "value": "trained in Medicine"
                },
                {
                    "value": "Debilitating Strike"
                }
            ]
        },
        "rules": [
            {
                "key": "Note",
                "predicate": {
                    "all": [
                        "target:flatFooted"
                    ]
                },
                "selector": "damage",
                "text": "<span class='pf2-icon'>f</span> @Compendium[pf2e.feats-srd.Bloody Debilitation]{Bloody Debilitation}"
            }
        ],
        "source": {
            "value": "Pathfinder Advanced Player's Guide"
        },
        "traits": {
            "custom": "",
            "rarity": {
                "value": "common"
            },
            "value": [
                "rogue"
            ]
        }
    },
    "effects": [],
    "flags": {},
    "img": "systems/pf2e/icons/features/feats/feats.webp",
    "name": "Bloody Debilitation",
    "type": "feat"
}
