{
    "_id": "SiedJ6hnDLEGeeBj",
    "data": {
        "actionCategory": {
            "value": ""
        },
        "actionType": {
            "value": "action"
        },
        "actions": {
            "value": 1
        },
        "description": {
            "value": "<p><strong>Requirements</strong> Your last action was a successful Strike.</p>\n<hr />\n<p>You hang onto a foe to harry them into submission.</p>\n<p>If your target moves while you're hanging onto it, you can choose to move with the target. The target is released if you choose not to move with it, at the start of your next turn, or if the target @Compendium[pf2e.actionspf2e.Escape]{Escapes}.</p>\n<p>Attempts to Escape from a Cling follow the rules for Escape, but use your Acrobatics DC and end the Cling instead of the conditions normally ended by the Escape action.</p>\n<p><strong>Special</strong> You can use this action without a free hand if your preceding Strike was made with your jaws or a similar unarmed attack you could use to hang on. The GM determines which unarmed attacks apply. Hanging on in this way prevents you from using that unarmed attack.</p>"
        },
        "featType": {
            "value": "ancestry"
        },
        "level": {
            "value": 9
        },
        "prerequisites": {
            "value": []
        },
        "rules": [],
        "source": {
            "value": "Pathfinder Advanced Player's Guide"
        },
        "traits": {
            "custom": "",
            "rarity": {
                "value": "common"
            },
            "value": [
                "goblin"
            ]
        }
    },
    "effects": [],
    "flags": {},
    "img": "systems/pf2e/icons/features/feats/feats.webp",
    "name": "Cling",
    "type": "feat"
}
