{
    "_id": "xYakFeP6olBsxpZN",
    "data": {
        "actionCategory": {
            "value": ""
        },
        "actionType": {
            "value": "action"
        },
        "actions": {
            "value": 1
        },
        "description": {
            "value": "<p>You grasp the animating force within an undead creature and bend it to your will.</p>\n<p>If the next action you use is to cast <em>@Compendium[pf2e.spells-srd.Harm]{Harm}</em> targeting one undead creature, you transform the effects of that <em>harm</em> spell.</p>\n<p>Instead of harm's normal effects, the target becomes controlled by you if its level is equal to or lower than your level – 3. It can attempt a Will saving throw to resist being controlled by you.</p>\n<p>If the target is already under someone else's command, the controlling creature also rolls a saving throw, and the undead uses the better result.</p>\n<hr />\n<p><strong>Critical Success</strong> The target is unaffected and is temporarily immune for 24 hours.</p>\n<p><strong>Success</strong> The target is unaffected.</p>\n<p><strong>Failure</strong> The undead creature becomes a minion under your control. The spell gains a duration of 1 minute, but it is dismissed if you or an ally attacks the minion undead.</p>\n<p><strong>Critical Failure</strong> As failure, but the duration is 1 hour.</p>"
        },
        "featType": {
            "value": "class"
        },
        "level": {
            "value": 4
        },
        "location": "",
        "prerequisites": {
            "value": [
                {
                    "value": "harmful font"
                },
                {
                    "value": "evil alignment"
                }
            ]
        },
        "rules": [],
        "source": {
            "value": "Pathfinder Core Rulebook"
        },
        "traits": {
            "custom": "",
            "rarity": {
                "value": "common"
            },
            "value": [
                "concentrate",
                "cleric",
                "metamagic"
            ]
        }
    },
    "effects": [],
    "flags": {},
    "img": "systems/pf2e/icons/features/feats/feats.webp",
    "name": "Command Undead",
    "type": "feat"
}
