{
    "_id": "gMPnLWLlHoNU9Lqv",
    "data": {
        "actionCategory": {
            "value": ""
        },
        "actionType": {
            "value": "passive"
        },
        "actions": {
            "value": null
        },
        "description": {
            "value": "<p>You've discovered how to add the magic of dragons to your tradition.</p>\n<p>Add the draconic bloodline's granted spells to your spell list; you must still learn them or add them to your repertoire as normal. These spells are <em>@Compendium[pf2e.spells-srd.Shield]{Shield}</em>, <em>@Compendium[pf2e.spells-srd.True Strike]{True Strike}</em>, <em>@Compendium[pf2e.spells-srd.Resist Energy]{Resist Energy}</em>, <em>@Compendium[pf2e.spells-srd.Haste]{Haste}</em>, <em>@Compendium[pf2e.spells-srd.Spell Immunity]{Spell Immunity}</em>, <em>@Compendium[pf2e.spells-srd.Chromatic Wall]{Chromatic Wall}</em>, <em>@Compendium[pf2e.spells-srd.Dragon Form]{Dragon Form}</em>, <em>@Compendium[pf2e.spells-srd.Mask of Terror]{Mask of Terror}</em>, <em>@Compendium[pf2e.spells-srd.Prismatic Wall]{Prismatic Wall}</em>, and <em>@Compendium[pf2e.spells-srd.Overwhelming Presence]{Overwhelming Presence}</em>.</p>"
        },
        "featType": {
            "value": "archetype"
        },
        "level": {
            "value": 4
        },
        "prerequisites": {
            "value": [
                {
                    "value": "ability to cast spells from spell slots"
                },
                {
                    "value": "Dragon Disciple Dedication"
                }
            ]
        },
        "rules": [],
        "source": {
            "value": "Pathfinder Advanced Player's Guide"
        },
        "traits": {
            "custom": "",
            "rarity": {
                "value": "common"
            },
            "value": [
                "archetype"
            ]
        }
    },
    "effects": [],
    "flags": {},
    "img": "systems/pf2e/icons/features/feats/feats.webp",
    "name": "Dragon Arcana",
    "type": "feat"
}
