{
    "_id": "Bk07joho2dUG3lVw",
    "data": {
        "actionCategory": {
            "value": ""
        },
        "actionType": {
            "value": "free"
        },
        "actions": {
            "value": null
        },
        "description": {
            "value": "<p><strong>Trigger</strong> You roll initiative, and you can observe at least one opponent.</p>\n<hr />\n<p>You hone your reaction time through duels and learn to draw your weapon seamlessly as you begin a fight. You gain a +2 circumstance bonus to the triggering initiative roll, and you can immediately Interact to draw your Aldori dueling sword.</p>"
        },
        "featType": {
            "value": "archetype"
        },
        "level": {
            "value": 4
        },
        "prerequisites": {
            "value": [
                {
                    "value": "Aldori Duelist Dedication"
                }
            ]
        },
        "rules": [],
        "source": {
            "value": "Pathfinder Lost Omens: World Guide"
        },
        "traits": {
            "custom": "",
            "rarity": {
                "value": "common"
            },
            "value": [
                "archetype"
            ]
        }
    },
    "effects": [],
    "flags": {},
    "img": "systems/pf2e/icons/features/feats/feats.webp",
    "name": "Duelist's Edge",
    "type": "feat"
}
