{
    "_id": "m4FOYkzuqNjU0ETq",
    "data": {
        "actionCategory": {
            "value": ""
        },
        "actionType": {
            "value": "passive"
        },
        "actions": {
            "value": null
        },
        "description": {
            "value": "<p>Your nails are supernaturally long and sharp.</p>\n<p>You gain a nails unarmed attack that deals [[/r {1d6}[slashing]]]{1d6 slashing damage}. Your nails are in the brawling group and have the agile and unarmed traits. You can etch your nails with runes with the same cost and restrictions as for etching runes onto @Compendium[pf2e.equipment-srd.Handwraps of Mighty Blows]{Handwraps of Mighty Blows}; runes etched onto your nails apply to nails unarmed attacks with both hands but not to other unarmed attacks.</p>\n<p>You can deliver hexes through your nails. When you successfully cast a non-cantrip hex that requires 2 actions or more to cast and that doesn't require a spell attack roll, if your target is within your reach, as part of the spellcasting activity you can make a nails @Compendium[pf2e.actionspf2e.Strike]{Strike} against the foe before applying any effects of the hex. If this Strike misses, the hex has no effect.</p>"
        },
        "featType": {
            "value": "class"
        },
        "level": {
            "value": 4
        },
        "location": "",
        "prerequisites": {
            "value": []
        },
        "rules": [
            {
                "category": "unarmed",
                "damage": {
                    "base": {
                        "damageType": "slashing",
                        "dice": 1,
                        "die": "d6"
                    }
                },
                "group": "brawling",
                "key": "Strike",
                "label": "Nails",
                "range": null,
                "traits": [
                    "agile",
                    "unarmed"
                ]
            }
        ],
        "source": {
            "value": "Pathfinder Advanced Player's Guide"
        },
        "traits": {
            "custom": "",
            "rarity": {
                "value": "common"
            },
            "value": [
                "witch"
            ]
        }
    },
    "effects": [],
    "flags": {},
    "img": "systems/pf2e/icons/features/feats/feats.webp",
    "name": "Eldritch Nails",
    "type": "feat"
}
