{
    "_id": "EZrxp0XxYh9rjghB",
    "data": {
        "actionCategory": {
            "value": ""
        },
        "actionType": {
            "value": "passive"
        },
        "actions": {
            "value": null
        },
        "description": {
            "value": "<p>You discover the secrets to embedding <em>aeon stones</em> into your flesh. You spend 1 day attuning to an <em>aeon stone</em> and physically embedding it in your skin. While the stone is embedded this way, you gain the benefits of the aeon stone as if it were orbiting above your head, but it protects the stone from being noticed or stolen as easily. <em>Aeon stones</em> in your flesh must be invested to function, as usual.</p>\n<p>You can also use this activity to safely remove an embedded <em>aeon stone</em> in 1 day. Someone without this feat can attempt to surgically remove it safely by spending 1 day and succeeding at a DC 30 Medicine check, or hastily by simply ripping it from a corpse.</p>"
        },
        "featType": {
            "value": "archetype"
        },
        "level": {
            "value": 2
        },
        "location": "",
        "prerequisites": {
            "value": [
                {
                    "value": "Runelord Dedication"
                },
                {
                    "value": "trained in Crafting"
                }
            ]
        },
        "rules": [],
        "source": {
            "value": ""
        },
        "traits": {
            "custom": "",
            "rarity": {
                "value": "common"
            },
            "value": [
                "archetype",
                "downtime",
                "skill"
            ]
        }
    },
    "effects": [],
    "flags": {},
    "img": "systems/pf2e/icons/default-icons/feat.svg",
    "name": "Embed Aeon Stone",
    "type": "feat"
}
