{
    "_id": "hSHteYr1g1gKHcwM",
    "data": {
        "actionCategory": {
            "value": ""
        },
        "actionType": {
            "value": "passive"
        },
        "actions": {
            "value": null
        },
        "description": {
            "value": "<p>While you are more susceptible to cold iron than most of the Wingless, you also have an incredible resilience and a deeper connection to the healing energies of the First World. Increase your maximum Hit Points by an amount equal to your level. If you rest for 10 minutes, brilliant light from the First World seeps into your form from your wings (or the spot where your wings would be), causing you to regain a number of Hit Points equal to your level; this is cumulative with any Hit Points you regain from Treat Wounds. However, you gain weakness 5 to cold iron.</p>"
        },
        "featType": {
            "value": "ancestry"
        },
        "level": {
            "value": 13
        },
        "location": "",
        "prerequisites": {
            "value": []
        },
        "rules": [],
        "source": {
            "value": "Pathfinder Lost Omens: Ancestry Guide"
        },
        "traits": {
            "custom": "",
            "rarity": {
                "value": "common"
            },
            "value": [
                "sprite"
            ]
        }
    },
    "effects": [],
    "flags": {},
    "img": "systems/pf2e/icons/features/feats/feats.webp",
    "name": "Fey Skin",
    "type": "feat"
}
