{
    "_id": "OYrcbyaV3v8ycksj",
    "data": {
        "actionCategory": {
            "value": "offensive"
        },
        "actionType": {
            "value": "action"
        },
        "actions": {
            "value": 3
        },
        "description": {
            "value": "<p>You remember the revelry of the Night Parade and call them to your aid in a riotous display. You Perform and cast 8th-level <em>@Compendium[pf2e.spells-srd.Mad Monkeys]{Mad Monkeys}</em> three times, except that the spell calls various apparitions such as dancing tsukumogami or drinking oni rather than monkeys. Each casting can produce a different kind of mischief. You can Sustain all three Spells each round using a single Perform action.</p>"
        },
        "featType": {
            "value": "class"
        },
        "level": {
            "value": 20
        },
        "location": "",
        "prerequisites": {
            "value": []
        },
        "rules": [],
        "source": {
            "value": "Pathfinder #168: King of the Mountain"
        },
        "traits": {
            "custom": "",
            "rarity": {
                "value": "uncommon"
            },
            "value": [
                "bard"
            ]
        }
    },
    "effects": [],
    "flags": {},
    "img": "systems/pf2e/icons/default-icons/feats.webp",
    "name": "Head of the Night Parade",
    "type": "feat"
}
