{
    "_id": "gqISxjbTtZSYndZ4",
    "data": {
        "actionCategory": {
            "value": ""
        },
        "actionType": {
            "value": "free"
        },
        "actions": {
            "value": null
        },
        "description": {
            "value": "<p><strong>Frequency</strong> once per day</p>\n<p><strong>Requirements</strong> Your previous action was Attunement Shift.</p>\n<hr />\n<p>If your next action is to cast a spell that would grant your terrain attunement bonus, reduce the number of actions to cast it by 1 (to a minimum of 1 action).</p>\n<hr />\n<p><strong>Special</strong> You can't use Quickened Attunement and @Compendium[pf2e.feats-srd.Quickened Casting]{Quickened Casting} in the same round.</p>"
        },
        "featType": {
            "value": "archetype"
        },
        "level": {
            "value": 16
        },
        "location": "",
        "prerequisites": {
            "value": [
                {
                    "value": "Geomancer Dedication"
                },
                {
                    "value": "legendary in Nature"
                }
            ]
        },
        "rules": [],
        "source": {
            "value": ""
        },
        "traits": {
            "custom": "",
            "rarity": {
                "value": "common"
            },
            "value": [
                "archetype",
                "concentrate",
                "metamagic"
            ]
        }
    },
    "effects": [],
    "flags": {},
    "img": "systems/pf2e/icons/default-icons/feat.svg",
    "name": "Quickened Attunement",
    "type": "feat"
}
