{
    "_id": "obGGzuPcgO5Xiz6P",
    "data": {
        "actionCategory": {
            "value": "interaction"
        },
        "actionType": {
            "value": "action"
        },
        "actions": {
            "value": 1
        },
        "description": {
            "value": "<p>They told you there was no way that explosions could heal people, but they were fools… Fools who didn't understand your brilliance! You create a minor explosion from your innovation, altering the combustion to cauterize wounds using vaporized medicinal herbs. You or a living creature adjacent to you regains [[/r {1d10}[healing]]]{1d10 Hit Points}. In addition, the creature you heal can attempt an immediate flat check to recover from a single source of persistent bleed damage, with the DC reduction from appropriate assistance.</p>\n<p>At 3rd level, and every 2 levels thereafter, increase the healing by 1d10.</p>\n<p><strong>Special</strong> If your innovation is a minion, it can take this action rather than you, though because it's not a living creature, it can't use the ability on itself.</p>"
        },
        "featType": {
            "value": "class"
        },
        "level": {
            "value": 2
        },
        "location": "",
        "prerequisites": {
            "value": []
        },
        "rules": [],
        "source": {
            "value": ""
        },
        "traits": {
            "custom": "",
            "rarity": {
                "value": "common"
            },
            "value": [
                "fire",
                "healing",
                "inventor",
                "manipulate",
                "unstable"
            ]
        }
    },
    "effects": [],
    "flags": {},
    "img": "systems/pf2e/icons/default-icons/feats.webp",
    "name": "Searing Restoration",
    "type": "feat"
}
