{
    "_id": "sCkzwTBLyE8FdzWI",
    "data": {
        "actionCategory": {
            "value": ""
        },
        "actionType": {
            "value": "passive"
        },
        "actions": {
            "value": null
        },
        "description": {
            "value": "<p>When you cast fireball heightened to at least 4th level, you can modify the spell to add the following to its standard effects: Your fireball leaves behind a brief cloud of smoke in its area. While it's smoke instead of mist, this cloud otherwise has the effects of obscuring mist, except that it lasts only 1 round.</p>"
        },
        "featType": {
            "value": "archetype"
        },
        "level": {
            "value": 8
        },
        "location": "",
        "prerequisites": {
            "value": [
                {
                    "value": "Spell Trickster Dedication"
                },
                {
                    "value": "ability to cast fireball"
                }
            ]
        },
        "rules": [],
        "source": {
            "value": ""
        },
        "traits": {
            "custom": "",
            "rarity": {
                "value": "common"
            },
            "value": [
                "archetype"
            ]
        }
    },
    "effects": [],
    "flags": {},
    "img": "systems/pf2e/icons/default-icons/feats.webp",
    "name": "Smoldering Explosion",
    "type": "feat"
}
