{
    "_id": "pedHIDAVLFzzjGO1",
    "data": {
        "actionCategory": {
            "value": ""
        },
        "actionType": {
            "value": "passive"
        },
        "actions": {
            "value": null
        },
        "description": {
            "value": "<p>You don't just resist magic; you devour it. Whenever you succeed at a saving throw against a spell or magical effect, you gain temporary Hit Points equal to double the spell's level, or equal to the level if the magical effect isn't a spell. These temporary Hit Points last until the end of your next turn.</p>"
        },
        "featType": {
            "value": "ancestry"
        },
        "level": {
            "value": 13
        },
        "location": "",
        "prerequisites": {
            "value": [
                {
                    "value": "Pervasive Superstition"
                }
            ]
        },
        "rules": [
            {
                "key": "Note",
                "outcome": [
                    "criticalSuccess",
                    "success"
                ],
                "predicate": {
                    "any": [
                        "arcane",
                        "divine",
                        "primal",
                        "occult",
                        "magical"
                    ]
                },
                "selector": "saving-throw",
                "text": "<p class='compact-text'><strong>{item|name}</strong> Whenever you succeed at a saving throw against a spell or magical effect, you gain temporary Hit Points equal to double the spell's level, or equal to the level if the magical effect isn't a spell. These temporary Hit Points last until the end of your next turn."
            }
        ],
        "source": {
            "value": "Pathfinder Advanced Player's Guide"
        },
        "traits": {
            "custom": "",
            "rarity": {
                "value": "common"
            },
            "value": [
                "orc"
            ]
        }
    },
    "effects": [],
    "flags": {},
    "img": "systems/pf2e/icons/features/feats/feats.webp",
    "name": "Spell Devourer",
    "type": "feat"
}
