{
    "_id": "oXoQ9wwOmDe0hwbU",
    "data": {
        "actionCategory": {
            "value": ""
        },
        "actionType": {
            "value": "passive"
        },
        "actions": {
            "value": null
        },
        "description": {
            "value": "<p>Your disparate identities allow you to defeat magic that detects lies. As long as what you say is true from the point of view of your current identity, you can say it even under effects like <em>@Compendium[pf2e.spells-srd.Zone of Truth]{Zone of Truth}</em> that force you to speak the truth.</p>"
        },
        "featType": {
            "value": "archetype"
        },
        "level": {
            "value": 7
        },
        "prerequisites": {
            "value": [
                {
                    "value": "master in Deception"
                },
                {
                    "value": "Vigilante Dedication"
                }
            ]
        },
        "rules": [],
        "source": {
            "value": "Pathfinder Advanced Player's Guide"
        },
        "traits": {
            "custom": "",
            "rarity": {
                "value": "common"
            },
            "value": [
                "archetype",
                "skill"
            ]
        }
    },
    "effects": [],
    "flags": {},
    "img": "systems/pf2e/icons/features/feats/feats.webp",
    "name": "Subjective Truth",
    "type": "feat"
}
