{
    "_id": "5NyX1WnXEO40yEaT",
    "data": {
        "actionCategory": {
            "value": ""
        },
        "actionType": {
            "value": "passive"
        },
        "actions": {
            "value": null
        },
        "description": {
            "value": "<p><strong>Requirements</strong> Dragonslayer Oath</p>\n<hr />\n<p>Your aura protects against destructive energies and dragons' breath. You and all allies within 15 feet gain resistance equal to your Charisma modifier to acid, cold, electricity, fire, and poison. If the source of one of these types of damage is a dragon's breath, increase the resistance to half your level.</p>"
        },
        "featType": {
            "value": "class"
        },
        "level": {
            "value": 14
        },
        "prerequisites": {
            "value": []
        },
        "rules": [],
        "source": {
            "value": "Pathfinder Core Rulebook"
        },
        "traits": {
            "custom": "",
            "rarity": {
                "value": "common"
            },
            "value": [
                "champion"
            ]
        }
    },
    "effects": [],
    "flags": {},
    "img": "systems/pf2e/icons/features/feats/feats.webp",
    "name": "Wyrmbane Aura",
    "type": "feat"
}
