{
    "_id": "a3uZckqOY9zQWzZ2",
    "data": {
        "description": {
            "value": "<p>You also gain a +1 status bonus on your next Diplomacy check to Make an Impression on those creatures present when you cast this spell, as long as the check occurs during the duration of the spell. You can read the air only once in a given social situation; casting it again has no effect.</p>"
        },
        "duration": {
            "expiry": "turn-start",
            "sustained": false,
            "unit": "minutes",
            "value": 1
        },
        "level": {
            "value": 1
        },
        "rules": [
            {
                "key": "FlatModifier",
                "predicate": {
                    "all": [
                        "action:make-an-impression"
                    ]
                },
                "selector": "diplomacy",
                "type": "status",
                "value": 1
            }
        ],
        "source": {
            "value": ""
        },
        "start": {
            "initiative": null,
            "value": 0
        },
        "target": null,
        "tokenIcon": {
            "show": true
        },
        "traits": {
            "custom": "",
            "rarity": {
                "value": "common"
            },
            "value": []
        }
    },
    "effects": [],
    "flags": {},
    "img": "systems/pf2e/icons/spells/read-the-air.webp",
    "name": "Spell Effect: Read the Air",
    "type": "effect"
}
