{
    "_id": "UtIOWubq7akdHMOh",
    "data": {
        "description": {
            "value": "<p>Granted by casting <em>@Compendium[pf2e.spells-srd.Augment Summoning]{Augment Summoning}</em></p>"
        },
        "duration": {
            "expiry": "turn-start",
            "sustained": false,
            "unit": "minutes",
            "value": 1
        },
        "level": {
            "value": 1
        },
        "rules": [
            {
                "key": "FlatModifier",
                "selector": "all",
                "type": "status",
                "value": 1
            }
        ],
        "source": {
            "value": ""
        },
        "start": {
            "initiative": null,
            "value": 0
        },
        "target": null,
        "tokenIcon": {
            "show": true
        },
        "traits": {
            "custom": "",
            "rarity": {
                "value": "common"
            },
            "value": []
        }
    },
    "effects": [],
    "flags": {},
    "img": "systems/pf2e/icons/spells/augment-summoning.webp",
    "name": "Spell Effect: Augment Summoning",
    "type": "effect"
}
