{
    "_id": "GnWkI3T3LYRlm3X8",
    "data": {
        "description": {
            "value": "<p>Granted by <em>@Compendium[pf2e.spells-srd.Magic Weapon]{Magic Weapon}</em></p>\n<p>The weapon glimmers with magic and energy. The target becomes a +1 <em>striking</em> weapon, gaining a +1 item bonus to attack rolls and increasing the number of weapon damage dice to two.</p>"
        },
        "duration": {
            "expiry": "turn-start",
            "sustained": false,
            "unit": "minutes",
            "value": 1
        },
        "level": {
            "value": 1
        },
        "rules": [
            {
                "key": "EffectTarget",
                "scope": "weapon"
            },
            {
                "key": "WeaponPotency",
                "selector": "{item|data.target}-attack",
                "value": 1
            },
            {
                "key": "Striking",
                "selector": "{item|data.target}-damage",
                "value": 1
            }
        ],
        "source": {
            "value": ""
        },
        "start": {
            "initiative": null,
            "value": 0
        },
        "target": null,
        "tokenIcon": {
            "show": true
        },
        "traits": {
            "custom": "",
            "rarity": {
                "value": "common"
            },
            "value": []
        }
    },
    "effects": [],
    "flags": {},
    "img": "systems/pf2e/icons/spells/magic-weapon.webp",
    "name": "Spell Effect: Magic Weapon",
    "type": "effect"
}
