{
    "_id": "8wCVSzWYcURWewbd",
    "data": {
        "description": {
            "value": "<p>Granted by <em>@Compendium[pf2e.spells-srd.Bestial Curse]{Bestial Curse}</em></p>\n<p>The creature gains weakness 1 to silver.</p>"
        },
        "duration": {
            "expiry": "turn-start",
            "sustained": false,
            "unit": "hours",
            "value": 1
        },
        "level": {
            "value": 4
        },
        "rules": [
            {
                "key": "Weakness",
                "type": "silver",
                "value": 1
            }
        ],
        "source": {
            "value": "Pathfinder Advanced Player's Guide"
        },
        "start": {
            "initiative": null,
            "value": 0
        },
        "target": null,
        "tokenIcon": {
            "show": true
        },
        "traits": {
            "custom": "",
            "rarity": {
                "value": "common"
            },
            "value": []
        }
    },
    "effects": [],
    "flags": {},
    "img": "systems/pf2e/icons/spells/bestial-curse.webp",
    "name": "Spell Effect: Bestial Curse (Failure)",
    "type": "effect"
}
