{
    "_id": "7tYv9lY3ksSUny2h",
    "data": {
        "description": {
            "value": "<p>The greater shadow's shadow hand Strike deals an additional 1d8 poison damage.</p>"
        },
        "duration": {
            "expiry": "turn-end",
            "sustained": true,
            "unit": "unlimited",
            "value": -1
        },
        "level": {
            "value": 6
        },
        "rules": [
            {
                "damageType": "poison",
                "diceNumber": 1,
                "dieSize": "d8",
                "key": "DamageDice",
                "selector": "shadow-hand-damage"
            }
        ],
        "source": {
            "value": "Pathfinder #171: Hurricane's Howl"
        },
        "start": {
            "initiative": null,
            "value": 0
        },
        "target": null,
        "tokenIcon": {
            "show": true
        },
        "traits": {
            "custom": "",
            "rarity": {
                "value": "common"
            },
            "value": []
        }
    },
    "effects": [],
    "flags": {},
    "img": "systems/pf2e/icons/default-icons/effect.svg",
    "name": "Spell Effect: Gray Shadow",
    "type": "effect"
}
