{
    "_id": "yke7fAUDxUNzouQc",
    "data": {
        "description": {
            "value": "<p>An elemental force fills your target, granting the target the swiftness of air, the ruggedness of earth, the sting of fire, or the flexibility of water, depending on which element you choose. Choose an element when you Cast the Spell. The target gains the benefit of that element as described below, and this spell gains that trait's element.</p>\n<ul>\n<li><strong>Air</strong> The target gains a +30-foot status bonus to its land Speed and gains a fly Speed equal to its land Speed without the status bonus.</li>\n</ul>"
        },
        "duration": {
            "expiry": "turn-start",
            "sustained": false,
            "unit": "minutes",
            "value": 1
        },
        "level": {
            "value": 1
        },
        "rules": [
            {
                "key": "BaseSpeed",
                "selector": "fly-speed",
                "value": "@attributes.speed.value"
            },
            {
                "key": "FlatModifier",
                "label": "Elemental Gift (Air)",
                "selector": "land-speed",
                "type": "status",
                "value": 30
            }
        ],
        "source": {
            "value": ""
        },
        "start": {
            "initiative": null,
            "value": 0
        },
        "target": null,
        "tokenIcon": {
            "show": true
        },
        "traits": {
            "custom": "",
            "rarity": {
                "value": "common"
            },
            "value": []
        }
    },
    "effects": [],
    "flags": {},
    "img": "systems/pf2e/icons/spells/elemental-gift.webp",
    "name": "Spell Effect: Elemental Gift (Air)",
    "type": "effect"
}
