{
    "_id": "dU7xRpg4kFd01hwZ",
    "data": {
        "actionCategory": {
            "value": ""
        },
        "actionType": {
            "value": "passive"
        },
        "actions": {
            "value": null
        },
        "description": {
            "value": "<p>You channel your rage through an instinct. You decide what your instinct means to you. It could be a creature or symbol beloved by your clan, or a purely internal source or filter of your rage, such as a belief, curse, heritage, or state of mind. Each instinct grants an instinct ability, plus more abilities you can gain via feats that list that instinct as a prerequisite. It also determines what damage you resist with raging resistance and, at higher levels, increases the additional damage you deal when you @Compendium[pf2e.classfeatures.Rage]{Rage}.</p>\n<p>Each instinct lists acts that are anathema to it. Whenever you perform such acts, you lose the instinct's abilities and any feats that list your instinct as a prerequisite until you spend 1 day of downtime re-centering yourself, though you keep all of your other barbarian abilities.</p>\n<hr />\n<ul>\n<li>@Compendium[pf2e.classfeatures.Animal Instinct]{Animal Instinct} <em>Note: Select the specific Animal Instinct from the list in this feature.</em></li>\n<li>@Compendium[pf2e.classfeatures.Dragon Instinct]{Dragon Instinct} <em>Note: Select the specific Dragon Instinct from the list in this feature.</em></li>\n<li>@Compendium[pf2e.classfeatures.Fury Instinct]{Fury Instinct}</li>\n<li>@Compendium[pf2e.classfeatures.Giant Instinct]{Giant Instinct}</li>\n<li>@Compendium[pf2e.classfeatures.Spirit Instinct]{Spirit Instinct}</li>\n<li>@Compendium[pf2e.classfeatures.Superstition Instinct]{Superstition Instinct}</li>\n</ul>"
        },
        "featType": {
            "value": "classfeature"
        },
        "level": {
            "value": 1
        },
        "location": "",
        "prerequisites": {
            "value": []
        },
        "rules": [],
        "source": {
            "value": ""
        },
        "traits": {
            "custom": "",
            "rarity": {
                "value": "common"
            },
            "value": [
                "barbarian"
            ]
        }
    },
    "effects": [],
    "flags": {},
    "img": "systems/pf2e/icons/features/classes/choice-feature.webp",
    "name": "Instinct",
    "type": "feat"
}
