{
    "_id": "Ju2Tp5s5iBB76tQO",
    "data": {
        "actionCategory": {
            "value": ""
        },
        "actionType": {
            "value": "passive"
        },
        "actions": {
            "value": null
        },
        "description": {
            "value": "<p>The collection of spells you can cast is called your spell repertoire. At 1st level, you learn two 1st-level spells of your choice and five cantrips of your choice. You choose these from the common spells from the tradition corresponding to your eidolon, or from other spells from that tradition to which you have access. You can cast any spell in your spell repertoire by using a spell slot of an appropriate spell level. Your spell slots and the spells in your spell repertoire are separate. If a feat or other ability adds a spell to your spell repertoire, it doesn't give you another spell slot, and vice versa.</p>\n<p>You add to this spell repertoire as you increase in level. Each time you get a spell slot (see Table 2-4: Summoner Spells per Day), you add a spell of the same level to your spell repertoire. At 2nd level, you select another 1st-level spell. At 3rd level, you add the first 2nd-level spell to your repertoire. At 4th level you gain your second and your spell repertoire reaches its maximum size of five spells.</p>\n<p>At 5th level, in addition to adding two 3rd-level spells to your repertoire, you lose your lowest level of spell slots. Any time you lose a level of spell slots, you lose two spells in your repertoire as well. These can come from spells you already know or out of the number of new spells you're learning. On levels in which you don't change your spell slots, you can swap out multiple spells, as described below.</p>\n<h3>Swapping Spells in Your Repertoire</h3>\n<p>As you gain new spells in your repertoire, you might want to replace some of the spells you previously learned. Each time you gain a level and learn new spells, you can swap out one of your old spells for a different spell of the same level. If it's a level at which you lose a set of lower-level slots, you can replace the two in either order. You can also instead swap a cantrip. You can also swap out spells by retraining during downtime.</p>\n<p>At 6th level and every even level thereafter, you can swap out any number of your spells for different spells of a level you can cast. When you do, you must keep at least one spell you can cast with your lowest level of spell slots so you don't end up with slots you can't use. For instance, at 6th level you would need to keep at least one 2nd-level spell, but all your other spells could be 3rd level.</p>"
        },
        "featType": {
            "value": "classfeature"
        },
        "level": {
            "value": 1
        },
        "location": "",
        "prerequisites": {
            "value": []
        },
        "rules": [],
        "source": {
            "value": ""
        },
        "traits": {
            "custom": "",
            "rarity": {
                "value": "common"
            },
            "value": [
                "summoner"
            ]
        }
    },
    "effects": [],
    "flags": {},
    "img": "systems/pf2e/icons/equipment/adventuring-gear/spellbook.webp",
    "name": "Spell Repertoire (Summoner)",
    "type": "feat"
}
