{
    "_id": "CR8OKDbeFJoZbOCu",
    "data": {
        "ability": {
            "value": ""
        },
        "area": {
            "areaType": "",
            "value": ""
        },
        "autoHeightenLevel": {
            "value": null
        },
        "category": {
            "value": "focus"
        },
        "components": {
            "focus": false,
            "material": false,
            "somatic": false,
            "verbal": true
        },
        "cost": {
            "value": ""
        },
        "damage": {
            "value": {}
        },
        "description": {
            "value": "<p>You focus on the intricacies of the magic binding you to your eidolon to extend the duration of your boost eidolon or reinforce eidolon spell. If your next action is to cast <em>@Compendium[pf2e.spells-srd.Boost Eidolon]{Boost Eidolon}</em> or <em>@Compendium[pf2e.spells-srd.Reinforce Eidolon]{Reinforce Eidolon}</em>, attempt a skill check with the skill associated with the tradition of magic you gain from your eidolon (such as Nature for a primal eidolon). The DC is usually a standard-difficulty DC of your level, but the GM can assign a different DC based on the circumstances. The effect depends on the result of your check.</p>\n<hr />\n<p><strong>Critical Success</strong> The spell lasts 4 rounds.</p>\n<p><strong>Success</strong> The spell lasts 3 rounds.</p>\n<p><strong>Failure</strong> The spell lasts 1 round, but you don't spend the Focus Point for casting this spell.</p>"
        },
        "duration": {
            "value": ""
        },
        "hasCounteractCheck": {
            "value": false
        },
        "level": {
            "value": 1
        },
        "location": {
            "value": ""
        },
        "materials": {
            "value": ""
        },
        "range": {
            "value": ""
        },
        "rules": [],
        "save": {
            "basic": "",
            "value": ""
        },
        "school": {
            "value": "divination"
        },
        "source": {
            "value": "Pathfinder Secrets of Magic"
        },
        "spellType": {
            "value": "utility"
        },
        "sustained": {
            "value": false
        },
        "target": {
            "value": ""
        },
        "time": {
            "value": "free"
        },
        "traditions": {
            "value": []
        },
        "traits": {
            "custom": "",
            "rarity": {
                "value": "uncommon"
            },
            "value": [
                "metamagic",
                "summoner"
            ]
        }
    },
    "effects": [],
    "flags": {},
    "img": "systems/pf2e/icons/default-icons/spell.svg",
    "name": "Extend Boost",
    "type": "spell"
}
