{
    "_id": "0uRpypf1Hi7ahvTl",
    "data": {
        "ability": {
            "value": ""
        },
        "area": {
            "areaType": "",
            "value": null
        },
        "areasize": {
            "value": ""
        },
        "category": {
            "value": "spell"
        },
        "components": {
            "material": false,
            "somatic": true,
            "verbal": true
        },
        "cost": {
            "value": ""
        },
        "damage": {
            "value": {
                "0": {
                    "type": {
                        "categories": [],
                        "value": "slashing"
                    },
                    "value": "1d8"
                }
            }
        },
        "description": {
            "value": "<p>A large gem floats around the target in an erratic pattern. The gem has 5 Hit Points. Each time a creature Strikes the target, the target attempts a DC 11 flat check. On a success, the gem blocks the attack, so the attack first damages the gem and then applies any remaining damage to the target. If the gem is reduced to 0 Hit Points, it shatters, immediately dealing the creature that destroyed it 1d8 slashing damage (basic Reflex save), as long as that creature is within 10 feet of the target.</p>\n<hr />\n<p><strong>Heightened (+1)</strong> The gem has 5 additional HP, and the damage dealt by its detonation increases by 1d8.</p>"
        },
        "duration": {
            "value": "1 minute"
        },
        "hasCounteractCheck": {
            "value": false
        },
        "level": {
            "value": 1
        },
        "location": {
            "value": ""
        },
        "materials": {
            "value": ""
        },
        "prepared": {
            "value": ""
        },
        "primarycheck": {
            "value": ""
        },
        "range": {
            "value": "touch"
        },
        "rules": [],
        "save": {
            "basic": "basic",
            "value": "reflex"
        },
        "scaling": {
            "damage": {
                "0": "1d8"
            },
            "interval": 1
        },
        "school": {
            "value": "abjuration"
        },
        "secondarycasters": {
            "value": ""
        },
        "secondarycheck": {
            "value": ""
        },
        "source": {
            "value": "Pathfinder Lost Omens: Gods & Magic"
        },
        "spellType": {
            "value": "save"
        },
        "sustained": {
            "value": false
        },
        "target": {
            "value": "1 creature"
        },
        "time": {
            "value": "2"
        },
        "traditions": {
            "custom": "",
            "value": [
                "arcane",
                "primal"
            ]
        },
        "traits": {
            "custom": "",
            "rarity": {
                "value": "common"
            },
            "value": [
                "earth"
            ]
        }
    },
    "effects": [],
    "flags": {},
    "img": "systems/pf2e/icons/spells/shattering-gem.webp",
    "name": "Shattering Gem",
    "type": "spell"
}
