{
    "_id": "hq57j7Nif1zuQ2Ab",
    "data": {
        "ability": {
            "value": ""
        },
        "area": {
            "areaType": "",
            "value": ""
        },
        "autoHeightenLevel": {
            "value": null
        },
        "category": {
            "value": "spell"
        },
        "components": {
            "focus": false,
            "material": false,
            "somatic": true,
            "verbal": true
        },
        "cost": {
            "value": ""
        },
        "damage": {
            "value": {}
        },
        "description": {
            "value": "<p>You alter a creature's shadow, transforming it into a terrifying monster out to devour the creature. The creature must attempt a Will save. A creature that has the frightened condition from <em>unspeakable shadow</em> must spend at least one of its actions each turn to either attack its shadow (making a Strike ineffectually) or flee from its shadow (using one action to move away as though it had the fleeing condition).</p>\n<hr />\n<p><strong>Critical Success</strong> The target is unaffected.</p>\n<p><strong>Success</strong> The target is @Compendium[pf2e.conditionitems.Frightened]{Frightened 2}.</p>\n<p><strong>Failure</strong> The target is @Compendium[pf2e.conditionitems.Frightened]{Frightened 3}. It can't reduce its frightened value below 1 for 1 minute.</p>\n<p><strong>Critical Failure</strong> The target is so afraid, it might instantly die. It must succeed at a Fortitude save or die; this saving throw has the incapacitation trait. If it succeeds at its save, the target is @Compendium[pf2e.conditionitems.Frightened]{Frightened 4} and can't reduce its frightened value below 1 for 1 minute.</p>"
        },
        "duration": {
            "value": "varies"
        },
        "hasCounteractCheck": {
            "value": false
        },
        "level": {
            "value": 9
        },
        "location": {
            "value": ""
        },
        "materials": {
            "value": ""
        },
        "range": {
            "value": "120 feet"
        },
        "rules": [],
        "save": {
            "basic": "",
            "value": "will"
        },
        "school": {
            "value": "illusion"
        },
        "source": {
            "value": "Pathfinder Secrets of Magic"
        },
        "spellType": {
            "value": "save"
        },
        "sustained": {
            "value": false
        },
        "target": {
            "value": "1 creature"
        },
        "time": {
            "value": "2"
        },
        "traditions": {
            "custom": "",
            "value": [
                "arcane",
                "occult"
            ]
        },
        "traits": {
            "custom": "",
            "rarity": {
                "value": "common"
            },
            "value": [
                "death",
                "emotion",
                "fear",
                "mental",
                "shadow",
                "visual"
            ]
        }
    },
    "effects": [],
    "flags": {},
    "img": "systems/pf2e/icons/spells/unspeakable-shadow.webp",
    "name": "Unspeakable Shadow",
    "type": "spell"
}
