{
    "_id": "BEaLe5M23Q7LKTLL",
    "data": {
        "actionCategory": {
            "value": ""
        },
        "actionType": {
            "value": "reaction"
        },
        "actions": {
            "value": null
        },
        "description": {
            "value": "<p><strong>[Item]</strong></p>\n<p><strong>Prerequisites</strong>: Tier 2 with the Vigilant Seal; You own a @Compendium[pf2e.equipment-srd.Wayfinder]{Wayfinder}</p>\n<p><strong>Cost</strong>: 2 Fame</p>\n<p><strong>Action</strong>: Reaction</p>\n<p><strong>Effect</strong>: You have specially reinforced your @Compendium[pf2e.equipment-srd.Wayfinder]{Wayfinder}, devising a way for the device to absorb harmful energies. When you slot this boon, you apply its benefits to one @Compendium[pf2e.equipment-srd.Wayfinder]{Wayfinder} in your possession, granting you a special reaction ability when the @Compendium[pf2e.equipment-srd.Wayfinder]{Wayfinder} is invested and in your possession. You gain the following reaction:</p>\n<hr />\n<p>Resist Harm <span class=\"pf2-icon\">R</span></p>\n<p><strong>Trigger</strong>: You would take damage.</p>\n<p><strong>Effect</strong>: You gain resistance to acid, cold, electricity, fire, force, negative, positive, and sonic damage equal to 1 plus your reputation tier against one attack, spell, or effect. This applies only to the initial effect, not to any subsequent attacks or damage dealt by the effect (such as persistent damage or an ongoing hazard).</p>\n<hr />\n<p>You can safely use this benefit once per adventure. You can attempt to use it a second time, overcharging the @Compendium[pf2e.equipment-srd.Wayfinder]{Wayfinder} at the risk of destroying it. When you do so, roll a DC 10 flat check. On a success, the @Compendium[pf2e.equipment-srd.Wayfinder]{Wayfinder} is broken. On a failure, the <em>wayfinder</em> is destroyed. If anyone tries to overcharge a @Compendium[pf2e.equipment-srd.Wayfinder]{Wayfinder} that's already been overcharged, the item is automatically destroyed (even if it has been repaired) and does not provide the activated benefit.</p>"
        },
        "featType": {
            "value": "pfsboon"
        },
        "level": {
            "value": 0
        },
        "prerequisites": {
            "value": []
        },
        "rules": [],
        "source": {
            "value": ""
        },
        "traits": {
            "custom": "",
            "rarity": {
                "value": "common"
            },
            "selected": {},
            "value": []
        }
    },
    "effects": [],
    "flags": {},
    "img": "systems/pf2e/icons/default-icons/mystery-man.webp",
    "name": "Wayfinder, Adamant",
    "type": "feat"
}
