{
    "_id": "U1L3MFKHe0sNvLoU",
    "data": {
        "abilities": {
            "cha": {
                "mod": -1
            },
            "con": {
                "mod": 3
            },
            "dex": {
                "mod": 7
            },
            "int": {
                "mod": -4
            },
            "str": {
                "mod": 5
            },
            "wis": {
                "mod": 2
            }
        },
        "attributes": {
            "ac": {
                "details": "",
                "value": 30
            },
            "allSaves": {
                "value": ""
            },
            "hp": {
                "details": "",
                "max": 130,
                "temp": 0,
                "value": 130
            },
            "initiative": {
                "ability": "perception"
            },
            "perception": {
                "value": 18
            },
            "shield": {
                "ac": 0,
                "brokenThreshold": 0,
                "hardness": 0,
                "max": 0,
                "value": 0
            },
            "speed": {
                "otherSpeeds": [],
                "value": "25"
            }
        },
        "details": {
            "alignment": {
                "value": "N"
            },
            "blurb": "",
            "creatureType": "Plant",
            "level": {
                "value": 10
            },
            "privateNotes": "",
            "publicNotes": "<p>Dezullons are dangerous carnivorous pitcher plants that dwell in forested regions with thick canopies. They hunt for meat along the forest's understory when not sunning themselves in the boughs above. Dezullons are smart enough to notice that some creatures are attracted by shiny things, and sometimes use such objects to set up ambushes. To assume that the dezullon's ambulations are slow simply because the creature has a root structure is a foolish mistake; many an adventurer has been crushed to death by this surprisingly agile plant. In addition, these dangerous plants are expert climbers, making their pursuit even more difficult to escape from.</p>\n<p>A hungry dezullon keeps prey off-balance by spilling its putrid, psychoactive digestive juices from its central pitcher. In addition to being highly acidic, the enzymes in a dezullon's digestive tract, once expelled, inflict a victim with powerful hallucinations and amnesia. This secondary effect makes dezullons highly sought after in some circles, including avid drug users, experimental doctors, and criminals who deal in poisons.</p>\n<p>Many varieties of dezullon exist, including lumbering giants of incredible size, those that have tiny, cup-shaped pitchers that proliferate along lengths of creeping ivy like suckers on a squid's tentacles, and others with hundreds of blood-red, razor-sharp leaves that protrude from the inside of their pitchers like a leech's teeth. This latter variety is especially dangerous, since the leaves can all but eviscerate creatures that become ensconced inside their pitchers.</p>",
            "source": {
                "author": "",
                "value": "Pathfinder Bestiary"
            }
        },
        "resources": {},
        "saves": {
            "fortitude": {
                "saveDetail": "",
                "value": 17
            },
            "reflex": {
                "saveDetail": "",
                "value": 21
            },
            "will": {
                "saveDetail": "",
                "value": 16
            }
        },
        "traits": {
            "ci": [],
            "di": {
                "custom": "",
                "value": []
            },
            "dr": [
                {
                    "exceptions": "",
                    "type": "acid",
                    "value": 20
                }
            ],
            "dv": [],
            "languages": {
                "custom": "",
                "selected": [],
                "value": []
            },
            "rarity": {
                "value": "common"
            },
            "senses": {
                "value": "low-light vision"
            },
            "size": {
                "value": "med"
            },
            "traits": {
                "custom": "",
                "value": [
                    "plant"
                ]
            }
        }
    },
    "effects": [],
    "flags": {},
    "img": "systems/pf2e/icons/default-icons/npc.svg",
    "items": [
        {
            "_id": "jt6yBdIcUHJLCmAw",
            "data": {
                "attack": {
                    "value": ""
                },
                "attackEffects": {
                    "custom": "",
                    "value": [
                        "grab"
                    ]
                },
                "bonus": {
                    "value": 21
                },
                "damageRolls": {
                    "jjqc2sriaoyneegxp0yh": {
                        "damage": "3d6+8",
                        "damageType": "bludgeoning"
                    },
                    "3hd04fzqs57c4ng7key0": {
                        "damage": "3d6",
                        "damageType": "acid"
                    }
                },
                "description": {
                    "value": ""
                },
                "rules": [],
                "slug": null,
                "source": {
                    "value": ""
                },
                "traits": {
                    "custom": "",
                    "rarity": {
                        "value": "common"
                    },
                    "value": [
                        "acid",
                        "agile"
                    ]
                },
                "weaponType": {
                    "value": "melee"
                }
            },
            "effects": [],
            "flags": {},
            "img": "systems/pf2e/icons/default-icons/melee.svg",
            "name": "Vine",
            "sort": 100000,
            "type": "melee"
        },
        {
            "_id": "3X0mRQVlCkn2NC2d",
            "data": {
                "attack": {
                    "value": ""
                },
                "attackEffects": {
                    "custom": "",
                    "value": [
                        "amnesia-venom"
                    ]
                },
                "bonus": {
                    "value": 23
                },
                "damageRolls": {
                    "38baos1uxixp8t47zao9": {
                        "damage": "4d8",
                        "damageType": "acid"
                    }
                },
                "description": {
                    "value": ""
                },
                "rules": [],
                "slug": null,
                "source": {
                    "value": ""
                },
                "traits": {
                    "custom": "",
                    "rarity": {
                        "value": "common"
                    },
                    "value": [
                        "acid",
                        "range-increment-30"
                    ]
                },
                "weaponType": {
                    "value": "ranged"
                }
            },
            "effects": [],
            "flags": {},
            "img": "systems/pf2e/icons/default-icons/melee.svg",
            "name": "Acid Glob",
            "sort": 200000,
            "type": "melee"
        },
        {
            "_id": "Vi6NXxHa4eMdcJpR",
            "data": {
                "actionCategory": {
                    "value": "interaction"
                },
                "actionType": {
                    "value": "passive"
                },
                "actions": {
                    "value": null
                },
                "description": {
                    "value": "<p>@Localize[PF2E.NPC.Abilities.Glossary.LowLightVision]</p>"
                },
                "requirements": {
                    "value": ""
                },
                "rules": [],
                "slug": "low-light-vision",
                "source": {
                    "value": ""
                },
                "traits": {
                    "custom": "",
                    "rarity": {
                        "value": "common"
                    },
                    "value": []
                },
                "trigger": {
                    "value": ""
                },
                "weapon": {
                    "value": ""
                }
            },
            "effects": [],
            "flags": {
                "core": {
                    "sourceId": "Compendium.pf2e.bestiary-ability-glossary-srd.fFu2sZz4KB01fVRc"
                }
            },
            "img": "systems/pf2e/icons/actions/Passive.webp",
            "name": "Low-Light Vision",
            "sort": 300000,
            "type": "action"
        },
        {
            "_id": "9falExFfOIxN5EKp",
            "data": {
                "actionCategory": {
                    "value": "defensive"
                },
                "actionType": {
                    "value": "passive"
                },
                "actions": {
                    "value": null
                },
                "description": {
                    "value": "<p>30 feet. A creature entering the emanation must attempt a <span data-pf2-check=\"fortitude\" data-pf2-dc=\"27\" data-pf2-traits=\"aura,olfactory\" data-pf2-label=\"Stench DC\" data-pf2-show-dc=\"gm\">Fortitude</span> save. On a failure, the creature is sickened 1, and on a critical failure is also slowed 1. While within the aura, the creature takes a -2 circumstance penalty to saves to recover from the sickened condition. A creature that succeeds at the save is temporarily immune to this effect for 1 minute.</p>"
                },
                "requirements": {
                    "value": ""
                },
                "rules": [],
                "slug": null,
                "source": {
                    "value": ""
                },
                "traits": {
                    "custom": "",
                    "rarity": {
                        "value": "common"
                    },
                    "value": [
                        "aura",
                        "olfactory"
                    ]
                },
                "trigger": {
                    "value": ""
                },
                "weapon": {
                    "value": ""
                }
            },
            "effects": [],
            "flags": {},
            "img": "systems/pf2e/icons/actions/Passive.webp",
            "name": "Stench",
            "sort": 400000,
            "type": "action"
        },
        {
            "_id": "cFtfekZXzWpLtSzL",
            "data": {
                "actionCategory": {
                    "value": "offensive"
                },
                "actionType": {
                    "value": "passive"
                },
                "actions": {
                    "value": null
                },
                "description": {
                    "value": "<p><strong>Saving Throw</strong> <span data-pf2-check=\"fortitude\" data-pf2-dc=\"29\" data-pf2-traits=\"mental,poison\" data-pf2-label=\"Amnesia Venom DC\" data-pf2-show-dc=\"gm\">Fortitude</span>; <strong>Maximum Duration</strong> 6 rounds; <strong>Stage 1</strong> @Compendium[pf2e.conditionitems.Flat-Footed]{Flat-Footed} (1 round); <strong>Stage 2</strong> @Compendium[pf2e.conditionitems.Flat-Footed]{Flat-Footed} and @Compendium[pf2e.conditionitems.Clumsy]{Clumsy 1} (1 round); <strong>Stage 3</strong> @Compendium[pf2e.conditionitems.Confused]{Confused}, @Compendium[pf2e.conditionitems.Flat-Footed]{Flat-Footed}, and @Compendium[pf2e.conditionitems.Clumsy]{Clumsy 2} (1 round).</p>"
                },
                "requirements": {
                    "value": ""
                },
                "rules": [],
                "slug": null,
                "source": {
                    "value": ""
                },
                "traits": {
                    "custom": "",
                    "rarity": {
                        "value": "common"
                    },
                    "value": [
                        "mental",
                        "poison"
                    ]
                },
                "trigger": {
                    "value": ""
                },
                "weapon": {
                    "value": ""
                }
            },
            "effects": [],
            "flags": {},
            "img": "systems/pf2e/icons/actions/Passive.webp",
            "name": "Amnesia Venom",
            "sort": 500000,
            "type": "action"
        },
        {
            "_id": "JLHTW9wq4yP5QZg3",
            "data": {
                "actionCategory": {
                    "value": "offensive"
                },
                "actionType": {
                    "value": "action"
                },
                "actions": {
                    "value": 1
                },
                "description": {
                    "value": "<p>2d6+2 bludgeoning, <span data-pf2-check=\"fortitude\" data-pf2-traits=\"damaging-effect\" data-pf2-label=\"Constrict DC\" data-pf2-dc=\"27\" data-pf2-show-dc=\"gm\">basic Fortitude</span></p>\n<hr />\n<p>@Localize[PF2E.NPC.Abilities.Glossary.Constrict]</p>"
                },
                "requirements": {
                    "value": ""
                },
                "rules": [],
                "slug": "constrict",
                "source": {
                    "value": ""
                },
                "traits": {
                    "custom": "",
                    "rarity": {
                        "value": "common"
                    },
                    "value": []
                },
                "trigger": {
                    "value": ""
                },
                "weapon": {
                    "value": ""
                }
            },
            "effects": [],
            "flags": {
                "core": {
                    "sourceId": "Compendium.pf2e.bestiary-ability-glossary-srd.g26YiEIfSHCpLocV"
                }
            },
            "img": "systems/pf2e/icons/actions/OneAction.webp",
            "name": "Constrict",
            "sort": 600000,
            "type": "action"
        },
        {
            "_id": "LG7PBXCgNj0UWIb8",
            "data": {
                "actionCategory": {
                    "value": "offensive"
                },
                "actionType": {
                    "value": "action"
                },
                "actions": {
                    "value": 1
                },
                "description": {
                    "value": "<p>Until the next time it acts, the dezullon appears to be a normal pitcher plant. It has an automatic result of 41 (44 in forests or swamps) on Deception checks and DCs to pass as a non-creature plant.</p>"
                },
                "requirements": {
                    "value": ""
                },
                "rules": [],
                "slug": null,
                "source": {
                    "value": ""
                },
                "traits": {
                    "custom": "",
                    "rarity": {
                        "value": "common"
                    },
                    "value": [
                        "concentrate"
                    ]
                },
                "trigger": {
                    "value": ""
                },
                "weapon": {
                    "value": ""
                }
            },
            "effects": [],
            "flags": {},
            "img": "systems/pf2e/icons/actions/OneAction.webp",
            "name": "Root",
            "sort": 700000,
            "type": "action"
        },
        {
            "_id": "t6mN0UbsWkljyeKM",
            "data": {
                "actionCategory": {
                    "value": "offensive"
                },
                "actionType": {
                    "value": "action"
                },
                "actions": {
                    "value": 1
                },
                "description": {
                    "value": "<p>@Localize[PF2E.NPC.Abilities.Glossary.Grab]</p>"
                },
                "requirements": {
                    "value": ""
                },
                "rules": [],
                "slug": "grab",
                "source": {
                    "value": ""
                },
                "traits": {
                    "custom": "",
                    "rarity": {
                        "value": "common"
                    },
                    "value": []
                },
                "trigger": {
                    "value": ""
                },
                "weapon": {
                    "value": ""
                }
            },
            "effects": [],
            "flags": {
                "core": {
                    "sourceId": "Compendium.pf2e.bestiary-ability-glossary-srd.Tkd8sH4pwFIPzqTr"
                }
            },
            "img": "systems/pf2e/icons/actions/OneAction.webp",
            "name": "Grab",
            "sort": 800000,
            "type": "action"
        },
        {
            "_id": "9azfJeLtfKbNAAY4",
            "data": {
                "description": {
                    "value": ""
                },
                "item": {
                    "value": 0
                },
                "mod": {
                    "value": 21
                },
                "proficient": {
                    "value": 0
                },
                "rules": [],
                "slug": null,
                "source": {
                    "value": ""
                },
                "traits": {
                    "custom": "",
                    "rarity": {
                        "value": "common"
                    },
                    "value": []
                }
            },
            "effects": [],
            "flags": {},
            "img": "systems/pf2e/icons/default-icons/lore.svg",
            "name": "Acrobatics",
            "sort": 900000,
            "type": "lore"
        },
        {
            "_id": "SFX00siwzHxuio8s",
            "data": {
                "description": {
                    "value": ""
                },
                "item": {
                    "value": 0
                },
                "mod": {
                    "value": 19
                },
                "proficient": {
                    "value": 0
                },
                "rules": [],
                "slug": null,
                "source": {
                    "value": ""
                },
                "traits": {
                    "custom": "",
                    "rarity": {
                        "value": "common"
                    },
                    "value": []
                }
            },
            "effects": [],
            "flags": {},
            "img": "systems/pf2e/icons/default-icons/lore.svg",
            "name": "Athletics",
            "sort": 1000000,
            "type": "lore"
        },
        {
            "_id": "isDFExlTeVfhuE1S",
            "data": {
                "description": {
                    "value": ""
                },
                "item": {
                    "value": 0
                },
                "mod": {
                    "value": 21
                },
                "proficient": {
                    "value": 0
                },
                "rules": [
                    {
                        "key": "FlatModifier",
                        "label": "In Forests or Swamps",
                        "predicate": {
                            "any": [
                                "terrain:forest",
                                "terrain:swamp"
                            ]
                        },
                        "selector": "stealth",
                        "value": 3
                    }
                ],
                "slug": null,
                "source": {
                    "value": ""
                },
                "traits": {
                    "custom": "",
                    "rarity": {
                        "value": "common"
                    },
                    "value": []
                },
                "variants": {
                    "0": {
                        "label": "+24 in forests or swamps",
                        "options": "terrain:forest, terrain:swamp"
                    }
                }
            },
            "effects": [],
            "flags": {},
            "img": "systems/pf2e/icons/default-icons/lore.svg",
            "name": "Stealth",
            "sort": 1100000,
            "type": "lore"
        }
    ],
    "name": "Dezullon",
    "token": {
        "disposition": -1,
        "height": 1,
        "img": "systems/pf2e/icons/default-icons/npc.svg",
        "name": "Dezullon",
        "width": 1
    },
    "type": "npc"
}
